…
``` r
litters_data <- janitor::clean_names(litters_data)
litters_data
```

    ## # A tibble: 49 x 8
    ##    group litter_number gd0_weight gd18_weight gd_of_birth pups_born_alive
    ##    <chr> <chr>              <dbl>       <dbl>       <dbl>           <dbl>
    ##  1 Con7  #85                 19.7        34.7          20               3
    ##  2 Con7  #1/2/95/2           27          42            19               8
    ##  3 Con7  #5/5/3/83/3-3       26          41.4          19               6
    ##  4 Con7  #5/4/2/95/2         28.5        44.1          19               5
    ##  5 Con7  #4/2/95/3-3         NA          NA            20               6
    ##  6 Con7  #2/2/95/3-2         NA          NA            20               6
    ##  7 Con7  #1/5/3/83/3-…       NA          NA            20               9
    ##  8 Con8  #3/83/3-3           NA          NA            20               9
    ##  9 Con8  #2/95/3             NA          NA            20               8
    ## 10 Con8  #3/5/2/2/95         28.5        NA            20               8
    ## # … with 39 more rows, and 2 more variables: pups_dead_birth <dbl>,
    ## #   pups_survive <dbl>
…
``` r
pups_data <- janitor::clean_names(pups_data)
pups_data
```

    ## # A tibble: 313 x 6
    ##    litter_number   sex pd_ears pd_eyes pd_pivot pd_walk
    ##    <chr>         <dbl>   <dbl>   <dbl>    <dbl>   <dbl>
    ##  1 #85               1       4      13        7      11
    ##  2 #85               1       4      13        7      12
    ##  3 #1/2/95/2         1       5      13        7       9
    ##  4 #1/2/95/2         1       5      13        8      10
    ##  5 #5/5/3/83/3-3     1       5      13        8      10
    ##  6 #5/5/3/83/3-3     1       5      14        6       9
    ##  7 #5/4/2/95/2       1      NA      14        5       9
    ##  8 #4/2/95/3-3       1       4      13        6       8
    ##  9 #4/2/95/3-3       1       4      13        7       9
    ## 10 #2/2/95/3-2       1       4      NA        8      10
    ## # … with 303 more rows

## Select

NOTE: typing ?select\_helpers lists all of the helper functions to use
within select

``` r
select(litters_data, group, litter_number)
```

    ## # A tibble: 49 x 2
    ##    group litter_number  
    ##    <chr> <chr>          
    ##  1 Con7  #85            
    ##  2 Con7  #1/2/95/2      
    ##  3 Con7  #5/5/3/83/3-3  
    ##  4 Con7  #5/4/2/95/2    
    ##  5 Con7  #4/2/95/3-3    
    ##  6 Con7  #2/2/95/3-2    
    ##  7 Con7  #1/5/3/83/3-3/2
    ##  8 Con8  #3/83/3-3      
    ##  9 Con8  #2/95/3        
    ## 10 Con8  #3/5/2/2/95    
    ## # … with 39 more rows

``` r
# starts_with is a helper function
select(litters_data, litter_number, gd0_weight, starts_with("pups"))
```

    ## # A tibble: 49 x 5
    ##    litter_number   gd0_weight pups_born_alive pups_dead_birth pups_survive
    ##    <chr>                <dbl>           <dbl>           <dbl>        <dbl>
    ##  1 #85                   19.7               3               4            3
    ##  2 #1/2/95/2             27                 8               0            7
    ##  3 #5/5/3/83/3-3         26                 6               0            5
    ##  4 #5/4/2/95/2           28.5               5               1            4
    ##  5 #4/2/95/3-3           NA                 6               0            6
    ##  6 #2/2/95/3-2           NA                 6               0            4
    ##  7 #1/5/3/83/3-3/2       NA                 9               0            9
    ##  8 #3/83/3-3             NA                 9               1            8
    ##  9 #2/95/3               NA                 8               0            8
    ## 10 #3/5/2/2/95           28.5               8               0            8
    ## # … with 39 more rows
…
``` r
names(select(litters_data, everything()))
```

    ## [1] "group"           "litter_number"   "gd0_weight"      "gd18_weight"    
    ## [5] "gd_of_birth"     "pups_born_alive" "pups_dead_birth" "pups_survive"

``` r
# select a range of variables
# select variables from group through pups_born_alive
select(litters_data, group:pups_born_alive)
```

    ## # A tibble: 49 x 6
    ##    group litter_number   gd0_weight gd18_weight gd_of_birth pups_born_alive
    ##    <chr> <chr>                <dbl>       <dbl>       <dbl>           <dbl>
    ##  1 Con7  #85                   19.7        34.7          20               3
    ##  2 Con7  #1/2/95/2             27          42            19               8
    ##  3 Con7  #5/5/3/83/3-3         26          41.4          19               6
    ##  4 Con7  #5/4/2/95/2           28.5        44.1          19               5
    ##  5 Con7  #4/2/95/3-3           NA          NA            20               6
    ##  6 Con7  #2/2/95/3-2           NA          NA            20               6
    ##  7 Con7  #1/5/3/83/3-3/2       NA          NA            20               9
    ##  8 Con8  #3/83/3-3             NA          NA            20               9
    ##  9 Con8  #2/95/3               NA          NA            20               8
    ## 10 Con8  #3/5/2/2/95           28.5        NA            20               8
    ## # … with 39 more rows

``` r
# using select to rename
select(litters_data, GROUP = group, litter_number) #GROUP is a new name for the existing group variable
```

    ## # A tibble: 49 x 2
    ##    GROUP litter_number  
    ##    <chr> <chr>          
    ##  1 Con7  #85            
    ##  2 Con7  #1/2/95/2      
    ##  3 Con7  #5/5/3/83/3-3  
    ##  4 Con7  #5/4/2/95/2    
    ##  5 Con7  #4/2/95/3-3    
    ##  6 Con7  #2/2/95/3-2    
    ##  7 Con7  #1/5/3/83/3-3/2
    ##  8 Con8  #3/83/3-3      
    ##  9 Con8  #2/95/3        
    ## 10 Con8  #3/5/2/2/95    
    ## # … with 39 more rows

``` r
# can alternatively use the rename function
rename(litters_data, GROUP = group)
```

    ## # A tibble: 49 x 8
    ##    GROUP litter_number gd0_weight gd18_weight gd_of_birth pups_born_alive
    ##    <chr> <chr>              <dbl>       <dbl>       <dbl>           <dbl>
    ##  1 Con7  #85                 19.7        34.7          20               3
    ##  2 Con7  #1/2/95/2           27          42            19               8
    ##  3 Con7  #5/5/3/83/3-3       26          41.4          19               6
    ##  4 Con7  #5/4/2/95/2         28.5        44.1          19               5
    ##  5 Con7  #4/2/95/3-3         NA          NA            20               6
    ##  6 Con7  #2/2/95/3-2         NA          NA            20               6
    ##  7 Con7  #1/5/3/83/3-…       NA          NA            20               9
    ##  8 Con8  #3/83/3-3           NA          NA            20               9
    ##  9 Con8  #2/95/3             NA          NA            20               8
    ## 10 Con8  #3/5/2/2/95         28.5        NA            20               8
    ## # … with 39 more rows, and 2 more variables: pups_dead_birth <dbl>,
    ## #   pups_survive <dbl>
…
``` r
#do not use filter to remove missing values
#i.e. do not do
filter(litters_data, !is.na(gd0_weight))
```

    ## # A tibble: 34 x 8
    ##    group litter_number gd0_weight gd18_weight gd_of_birth pups_born_alive
    ##    <chr> <chr>              <dbl>       <dbl>       <dbl>           <dbl>
    ##  1 Con7  #85                 19.7        34.7          20               3
    ##  2 Con7  #1/2/95/2           27          42            19               8
    ##  3 Con7  #5/5/3/83/3-3       26          41.4          19               6
    ##  4 Con7  #5/4/2/95/2         28.5        44.1          19               5
    ##  5 Con8  #3/5/2/2/95         28.5        NA            20               8
    ##  6 Con8  #5/4/3/83/3         28          NA            19               9
    ##  7 Mod7  #59                 17          33.4          19               8
    ##  8 Mod7  #103                21.4        42.1          19               9
    ##  9 Mod7  #3/82/3-2           28          45.9          20               5
    ## 10 Mod7  #4/2/95/2           23.5        NA            19               9
    ## # … with 24 more rows, and 2 more variables: pups_dead_birth <dbl>,
    ## #   pups_survive <dbl>
…
    ## [1] 34

# Mutate

``` r
mutate(litters_data,
  wt_gain = gd18_weight - gd0_weight,
  group = str_to_lower(group)
)
```

    ## # A tibble: 49 x 9
    ##    group litter_number gd0_weight gd18_weight gd_of_birth pups_born_alive
    ##    <chr> <chr>              <dbl>       <dbl>       <dbl>           <dbl>
    ##  1 con7  #85                 19.7        34.7          20               3
    ##  2 con7  #1/2/95/2           27          42            19               8
    ##  3 con7  #5/5/3/83/3-3       26          41.4          19               6
    ##  4 con7  #5/4/2/95/2         28.5        44.1          19               5
    ##  5 con7  #4/2/95/3-3         NA          NA            20               6
    ##  6 con7  #2/2/95/3-2         NA          NA            20               6
    ##  7 con7  #1/5/3/83/3-…       NA          NA            20               9
    ##  8 con8  #3/83/3-3           NA          NA            20               9
    ##  9 con8  #2/95/3             NA          NA            20               8
    ## 10 con8  #3/5/2/2/95         28.5        NA            20               8
    ## # … with 39 more rows, and 3 more variables: pups_dead_birth <dbl>,
    ## #   pups_survive <dbl>, wt_gain <dbl>

# Arrange

``` r
arrange(litters_data, pups_born_alive)
```

    ## # A tibble: 49 x 8
    ##    group litter_number gd0_weight gd18_weight gd_of_birth pups_born_alive
    ##    <chr> <chr>              <dbl>       <dbl>       <dbl>           <dbl>
    ##  1 Con7  #85                 19.7        34.7          20               3
    ##  2 Low7  #111                25.5        44.6          20               3
    ##  3 Low8  #4/84               21.8        35.2          20               4
    ##  4 Con7  #5/4/2/95/2         28.5        44.1          19               5
    ##  5 Con8  #2/2/95/2           NA          NA            19               5
    ##  6 Mod7  #3/82/3-2           28          45.9          20               5
    ##  7 Mod7  #5/3/83/5-2         22.6        37            19               5
    ##  8 Mod7  #106                21.7        37.8          20               5
    ##  9 Con7  #5/5/3/83/3-3       26          41.4          19               6
    ## 10 Con7  #4/2/95/3-3         NA          NA            20               6
    ## # … with 39 more rows, and 2 more variables: pups_dead_birth <dbl>,
    ## #   pups_survive <dbl>

``` r
# descending
arrange(litters_data, desc(pups_born_alive))
```

    ## # A tibble: 49 x 8
    ##    group litter_number gd0_weight gd18_weight gd_of_birth pups_born_alive
    ##    <chr> <chr>              <dbl>       <dbl>       <dbl>           <dbl>
    ##  1 Low7  #102                22.6        43.3          20              11
    ##  2 Mod8  #5/93               NA          41.1          20              11
    ##  3 Con7  #1/5/3/83/3-…       NA          NA            20               9
    ##  4 Con8  #3/83/3-3           NA          NA            20               9
    ##  5 Con8  #5/4/3/83/3         28          NA            19               9
    ##  6 Mod7  #103                21.4        42.1          19               9
    ##  7 Mod7  #4/2/95/2           23.5        NA            19               9
    ##  8 Mod7  #8/110/3-2          NA          NA            20               9
    ##  9 Low7  #107                22.6        42.4          20               9
    ## 10 Low7  #98                 23.8        43.8          20               9
    ## # … with 39 more rows, and 2 more variables: pups_dead_birth <dbl>,
    ## #   pups_survive <dbl>

``` r
# arrange according to multiple variables
arrange(litters_data, pups_born_alive, gd0_weight)
```

    ## # A tibble: 49 x 8
    ##    group litter_number gd0_weight gd18_weight gd_of_birth pups_born_alive
    ##    <chr> <chr>              <dbl>       <dbl>       <dbl>           <dbl>
    ##  1 Con7  #85                 19.7        34.7          20               3
    ##  2 Low7  #111                25.5        44.6          20               3
    ##  3 Low8  #4/84               21.8        35.2          20               4
    ##  4 Mod7  #106                21.7        37.8          20               5
    ##  5 Mod7  #5/3/83/5-2         22.6        37            19               5
    ##  6 Mod7  #3/82/3-2           28          45.9          20               5
    ##  7 Con7  #5/4/2/95/2         28.5        44.1          19               5
    ##  8 Con8  #2/2/95/2           NA          NA            19               5
    ##  9 Low8  #99                 23.5        39            20               6
    ## 10 Low7  #112                23.9        40.5          19               6
    ## # … with 39 more rows, and 2 more variables: pups_dead_birth <dbl>,
    ## #   pups_survive <dbl>
…
``` r
litters_data = 
  read_csv("./data/FAS_litters.csv", col_types = "ccddiiii") %>%
  janitor::clean_names() %>%
  select(-pups_survive) %>%
  mutate(
    wt_gain = gd18_weight - gd0_weight,
    group = str_to_lower(group)) %>% 
  drop_na(wt_gain)

litters_data
```

    ## # A tibble: 31 x 8
    ##    group litter_number gd0_weight gd18_weight gd_of_birth pups_born_alive
    ##    <chr> <chr>              <dbl>       <dbl>       <int>           <int>
    ##  1 con7  #85                 19.7        34.7          20               3
    ##  2 con7  #1/2/95/2           27          42            19               8
    ##  3 con7  #5/5/3/83/3-3       26          41.4          19               6
    ##  4 con7  #5/4/2/95/2         28.5        44.1          19               5
    ##  5 mod7  #59                 17          33.4          19               8
    ##  6 mod7  #103                21.4        42.1          19               9
    ##  7 mod7  #3/82/3-2           28          45.9          20               5
    ##  8 mod7  #5/3/83/5-2         22.6        37            19               5
    ##  9 mod7  #106                21.7        37.8          20               5
    ## 10 mod7  #94/2               24.4        42.9          19               7
    ## # … with 21 more rows, and 2 more variables: pups_dead_birth <int>,
    ## #   wt_gain <dbl>
…
