Tidy Data
================
Jessica Lavery
9/24/2019

## Wide to long

``` r
pulse_data <-  haven::read_sas("./data/public_pulse_data.sas7bdat") %>% 
  janitor::clean_names()

pulse_data
```

    ## # A tibble: 1,087 x 7
    ##      id   age sex   bdi_score_bl bdi_score_01m bdi_score_06m bdi_score_12m
    ##   <dbl> <dbl> <chr>        <dbl>         <dbl>         <dbl>         <dbl>
    ## 1 10003  48.0 male             7             1             2             0
    ## 2 10015  72.5 male             6            NA            NA            NA
    ## 3 10022  58.5 male            14             3             8            NA
    ## 4 10026  72.7 male            20             6            18            16
    ## 5 10035  60.4 male             4             0             1             2
    ## # … with 1,082 more rows

``` r
#can also write cols as bdi_score_bl:bdi_score_12m
pulse_tidy_data <- pulse_data %>% 
  pivot_longer(cols = c(bdi_score_bl, bdi_score_01m, bdi_score_06m, bdi_score_12m),
               names_to = "visit", 
               names_prefix = "bdi_score_", #removes bdi_score from the prefix in the visit variable
               values_to = "bdi")

pulse_tidy_data
```

    ## # A tibble: 4,348 x 5
    ##      id   age sex   visit   bdi
    ##   <dbl> <dbl> <chr> <chr> <dbl>
    ## 1 10003  48.0 male  bl        7
    ## 2 10003  48.0 male  01m       1
    ## 3 10003  48.0 male  06m       2
    ## 4 10003  48.0 male  12m       0
    ## 5 10015  72.5 male  bl        6
    ## # … with 4,343 more rows
…
pulse_data
```

    ## # A tibble: 4,348 x 8
    ##      id visit   age sex     bdi visit_replace visit_recode visit_factor
    ##   <dbl> <chr> <dbl> <chr> <dbl> <chr>         <chr>        <fct>       
    ## 1 10003 01m    48.0 male      1 01m           01m          01m         
    ## 2 10003 06m    48.0 male      2 06m           06m          06m         
    ## 3 10003 12m    48.0 male      0 12m           12m          12m         
    ## 4 10003 bl     48.0 male      7 00m           00m          00m         
    ## 5 10015 01m    72.5 male     NA 01m           01m          01m         
    ## # … with 4,343 more rows
…
``` r
litters_data
```

    ## # A tibble: 49 x 10
    ##   dose  day_of_tx litter_number gd0_weight gd18_weight gd_of_birth
    ##   <chr> <chr>     <chr>              <dbl>       <dbl>       <dbl>
    ## 1 con   7         #1/2/95/2             27        42            19
    ## 2 con   7         #1/5/3/83/3-…         NA        NA            20
    ## 3 con   8         #1/6/2/2/95-2         NA        NA            20
    ## 4 mod   7         #1/82/3-2             NA        NA            19
    ## 5 low   8         #100                  20        39.2          20
    ## # … with 44 more rows, and 4 more variables: pups_born_alive <dbl>,
    ## #   pups_dead_birth <dbl>, pups_survive <dbl>, wt_gain <dbl>
…
    ## Parsed with column specification:
    ## cols(
    ##   `What is your UNI?` = col_character(),
    ##   `What operating system do you use?` = col_character()
    ## )

``` r
  # separate(col = what_is_your_uni, into = c("drop", "student"), sep = "_")
surv_os
```

    ## # A tibble: 173 x 2
    ##   id          os        
    ##   <chr>       <chr>     
    ## 1 student_87  <NA>      
    ## 2 student_106 Windows 10
    ## 3 student_66  Mac OS X  
    ## 4 student_93  Windows 10
    ## 5 student_99  Mac OS X  
    ## # … with 168 more rows
…
